…
    # membuka url dengan selenium
    remote_driver$navigate(url)

    # parsing html dengan membaca selenium menggunakan rvest
    df = 
      remote_driver$getPageSource()[[1]] %>% 
      read_html() %>% 
      html_table(fill = T)

</break> </break> </break>

Berikut adalah hasil data mentahnya:

    ## [[1]]
    ## # A tibble: 37 x 38
    ##    No    Wilayah    Total  Total Total TK    TK    TK    KB    KB    KB    TPA  
    ##    <chr> <chr>      <chr>  <chr> <chr> <chr> <chr> <chr> <chr> <chr> <chr> <chr>
    ##  1 No    Wilayah    Jml    N     S     Jml   N     S     Jml   N     S     Jml  
    ##  2 1     Prov. Jaw… 67.352 19.8… 47.5… 18.6… 179   18.4… 14.7… 3     14.7… 398  
    ##  3 2     Prov. Jaw… 62.069 20.4… 41.6… 9.454 156   9.298 13.5… 4     13.5… 139  
    ##  4 3     Prov. Jaw… 53.540 20.1… 33.3… 14.1… 176   13.9… 10.2… 12    10.2… 587  
    ##  5 4     Prov. Sum… 23.815 10.6… 13.1… 3.084 206   2.878 5.180 148   5.032 59   
    ##  6 5     Prov. Sul… 16.555 8.178 8.377 4.617 272   4.345 1.823 3     1.820 76   
    ##  7 6     Prov. Ban… 14.678 4.848 9.830 2.537 107   2.430 3.477 2     3.475 28   
    ##  8 7     Prov. Nus… 13.949 5.646 8.303 1.632 262   1.370 3.746 57    3.689 24   
    ##  9 8     Prov. Lam… 13.348 5.516 7.832 3.125 108   3.017 2.450 0     2.450 41   
    ## 10 9     Prov. Sum… 12.998 5.784 7.214 2.300 135   2.165 3.151 4     3.147 24   
    ## # … with 27 more rows, and 26 more variables: TPA <chr>, TPA.1 <chr>,
    ## #   SPS <chr>, SPS.1 <chr>, SPS.2 <chr>, PKBM <chr>, PKBM.1 <chr>,
    ## #   PKBM.2 <chr>, SKB <chr>, SKB.1 <chr>, SKB.2 <chr>, SD <chr>, SD.1 <chr>,
    ## #   SD.2 <chr>, SMP <chr>, SMP.1 <chr>, SMP.2 <chr>, SMA <chr>, SMA.1 <chr>,
    ## #   SMA.2 <chr>, SMK <chr>, SMK.1 <chr>, SMK.2 <chr>, SLB <chr>, SLB.1 <chr>,
    ## #   SLB.2 <chr>
…
