…
<img src="https://raw.githubusercontent.com/ikanx101/ikanx101.github.io/master/_posts/huggingface/sentimentil/posig.png" width="450" />

Masih *nyambung* dengan [tulisan saya
sebelumnya](https://ikanx101.com/blog/llm-teks-clustering/), saya
tertarik untuk menganalisa semua komentar *netizen* di *post* ini. *Mari
kita mulai!*

## Data Komentar

Berikut adalah data komentar yang saya ambil dari *post* tersebut:

    # A tibble: 144 × 2
       username        text                                                         
       <chr>           <chr>                                                        
     1 nutrifood       @sectusempraa Halo! Kami berupaya mempermudah teman-teman ya…
     2 pucyeel         Halo admin, setelah isi apakah dpt email konfirmasi mengisi?…
     3 anggunzlfi      @nutrifood kak, jika stattus nya sedang menunggu wisuda pili…
     4 twinkebells     Batas terakhir daftarnya kapan ya?                           
     5 puguhwicaksonoo Min @nutrifood pengumumannya kapan yaa?                      
     6 haihaiiyy       Min kalau abis daftar 1 posisi, boleh daftar posisi lain kah?
     7 nutrifood       @haihaiiyy boleh :)                                          
     8 nutrifood       @puguhwicaksonoo hanya eligible candidates yang akan dihubun…
     9 nutrifood       @twinkebells Halo, pendaftaran akan ditutup ketika sudah mem…
    10 nutrifood       @anggunzlfi silakan klik kotak Present ya yg menandakan masi…
    # ℹ 134 more rows
…
