…
Analisa ini sebenarnya sangat mudah. Hanya menghitung ada berapa banyak
kata yang keluar dalam suatu data teks. Sebelum mulai, kita akan lakukan
*preparation* terhadap data teksnya. Apa itu? Mengubah tulisannya jadi
*lowercase* biar mudah dianalisa.

Berhubung ini hanya untuk *fun* aja, saya akan *skip* bagian *word
stemming* dan *remove stopwords*.

> *Kindly Googling about those two terms yah in parts of text analytics*

*Yuk* kita lihat kata-kata apa saja yang sering muncul\!

Berikut adalah semua kata yang punya frekuensi minimal 5 yah:

    ## # A tibble: 70 x 2
    ##    words         n
    ##    <chr>     <int>
    ##  1 dan          22
    ##  2 ini          22
    ##  3 tropicana    18
    ##  4 banget       15
    ##  5 episode      15
    ##  6 sunyi        15
    ##  7 di           13
    ##  8 keren        13
    ##  9 teman        13
    ## 10 yg           13
    ## # … with 60 more rows
…
