…
``` r
library(dplyr)
library(tidyr)
```

Selanjutnya untuk mengubah menjadi data tabular, prosesnya cukup mudah,
yakni:

``` r
df %>% 
  separate_rows(stasiun_tv,
                sep = ";")
```

    ## # A tibble: 23 × 2
    ##       id stasiun_tv
    ##    <int> <chr>     
    ##  1     1 NET       
    ##  2     1 RCTI      
    ##  3     1 SCTV      
    ##  4     2 NET       
    ##  5     2 SCTV      
    ##  6     3 INDOSIAR  
    ##  7     3 NET       
    ##  8     4 INDOSIAR  
    ##  9     4 METRO     
    ## 10     5 METRO     
    ## # … with 13 more rows
…
